Dates,M0,M1,M2,M3
2017-08-29,0,0,0,0
2017-09-03,1,1,1,1
2017-09-08,1,1,1,0
2017-09-13,1,1,1,1
2017-09-23,0,0,1,0
2017-09-28,1,1,1,1
2017-10-03,1,1,1,1
2017-10-03,1,1,1,1
2017-10-08,0,0,0,0
2017-10-13,0,0,0,0
2017-10-18,1,1,0,0
2017-10-23,1,0,1,1
2017-10-28,0,0,0,0
2017-11-02,1,1,1,1
2017-11-07,0,0,0,0
2017-11-17,0,0,0,0
2017-11-22,0,0,0,0
2017-11-27,0,0,0,0
2017-12-07,1,1,1,1
2017-12-12,1,0,1,1
2017-12-27,1,1,1,1
2018-02-10,0,1,0,0
2018-02-15,1,0,1,0
2018-02-25,0,0,0,0
2018-03-02,0,0,0,0
2018-03-07,1,0,1,0
2018-03-17,1,1,1,1
2018-03-22,0,0,0,0
2018-04-01,1,1,1,1
2018-04-21,0,0,0,0
2018-04-26,1,1,1,1
2018-05-06,1,1,1,1
2018-05-11,0,0,0,0
2018-05-21,0,0,0,0
2018-06-20,0,0,0,0
2018-06-25,0,0,0,0
2018-06-30,0,0,0,0
2018-07-10,1,1,1,1
2018-07-15,1,0,1,0
2018-07-25,0,0,0,0
2018-07-30,0,1,0,0
2018-08-04,0,0,0,0
2018-08-19,0,0,0,0
2018-09-03,0,0,0,0
2018-09-08,0,0,0,0
2018-09-18,1,0,1,1
2018-09-23,0,0,0,0
2018-09-28,0,0,0,0
2018-10-03,0,0,0,0
2018-10-13,1,0,1,0
2018-11-12,0,0,0,0
2018-11-17,0,0,0,0
2018-11-22,1,1,1,1
2018-11-27,0,0,0,0
