Dates,Q1,Q2,Q3,Q4,Q5
2017-08-27,0.0506574772298336,0.06455054879188538,0.06464312970638275,0.04839085787534714,0.05176839232444763
2017-09-06,0.06444236636161804,0.0761374905705452,0.07383160293102264,0.06298980861902237,0.06184060126543045
2017-09-16,0.059569910168647766,0.0680505558848381,0.07093030214309692,0.04985884577035904,0.052783988416194916
2017-09-26,0.08887515217065811,0.09725510329008102,0.11190653592348099,0.08173302561044693,0.08110487461090088
2017-10-06,0.07167812436819077,0.08866863697767258,0.09129002690315247,0.06529542803764343,0.06374771147966385
2017-10-16,0.05936283618211746,0.06609632074832916,0.0715729296207428,0.0580456405878067,0.04707188159227371
2017-10-26,0.05781906843185425,0.05979764461517334,0.07551106065511703,0.05317387729883194,0.056455932557582855
2017-11-05,0.06809313595294952,0.07993222773075104,0.07805351167917252,0.06337755918502808,0.06432835012674332
2017-11-15,0.04610820859670639,0.056045591831207275,0.05390612781047821,0.04305274039506912,0.050112705677747726
2017-11-25,0.10984356701374054,0.11763780564069748,0.12666510045528412,0.09898438304662704,0.12694700062274933
2017-12-05,0.0462825670838356,0.05463724210858345,0.05418781191110611,0.04355660453438759,0.04873346909880638
2017-12-15,0.0685020387172699,0.08139142394065857,0.08660437911748886,0.060637298971414566,0.059053339064121246
2017-12-25,0.12602175772190094,0.1423555165529251,0.1629016399383545,0.11880210787057877,0.0959852784872055
2018-01-04,0.10981430113315582,0.12369634956121445,0.14269524812698364,0.10533072054386139,0.09196814894676208
2018-01-14,0.0775611475110054,0.09837644547224045,0.11437992751598358,0.06099149212241173,0.056429050862789154
2018-01-24,0.10866878926753998,0.12566329538822174,0.1631757616996765,0.1051507294178009,0.08872830867767334
2018-02-03,0.08007131516933441,0.10086756199598312,0.09969509392976761,0.06739532947540283,0.07547406107187271
2018-02-13,0.08196482062339783,0.09625307470560074,0.09401415288448334,0.0691530853509903,0.071834035217762
2018-02-23,0.08347515761852264,0.093254953622818,0.09558149427175522,0.09022631496191025,0.09271910786628723
2018-03-05,0.06316583603620529,0.06525808572769165,0.07333426177501678,0.06521632522344589,0.057347506284713745
2018-03-15,0.0594785176217556,0.06451781094074249,0.07045254111289978,0.05804593488574028,0.0530526265501976
2018-03-25,0.056399207562208176,0.06647618114948273,0.06838755309581757,0.0551256462931633,0.04892745986580849
2018-04-04,0.06838617473840714,0.07198654860258102,0.06482911109924316,0.07035311311483383,0.07509636878967285
2018-04-14,0.053355515003204346,0.062413644045591354,0.05754544585943222,0.051947612315416336,0.0531109981238842
2018-04-24,0.07002446055412292,0.07663778960704803,0.07985924184322357,0.061615802347660065,0.06999872624874115
2018-05-04,0.05875213444232941,0.07147832214832306,0.056067243218421936,0.05519282817840576,0.06648083031177521
2018-05-14,0.05443323403596878,0.05645372346043587,0.061089351773262024,0.054797105491161346,0.056285589933395386
2018-05-24,0.08024049550294876,0.0737624317407608,0.08662326633930206,0.09050905704498291,0.09267327934503555
2018-06-03,0.09669733792543411,0.0943710133433342,0.10837599635124207,0.10753147304058075,0.0979323461651802
2018-06-13,0.08715906739234924,0.09114629030227661,0.09613855928182602,0.08951851725578308,0.08283498883247375
2018-06-23,0.07502538710832596,0.08954218775033951,0.08087235689163208,0.06769348680973053,0.07635660469532013
2018-07-03,0.10496494919061661,0.11083081364631653,0.13739550113677979,0.09702258557081223,0.08761150389909744
2018-07-13,0.07064428180456161,0.08037121593952179,0.07395946979522705,0.06643818318843842,0.06923212110996246
2018-07-23,0.09812755137681961,0.10665061324834824,0.11822380870580673,0.09232630580663681,0.08528343588113785
2018-08-02,0.08675764501094818,0.09248647838830948,0.09952019155025482,0.08432462066411972,0.08421706408262253
2018-08-12,0.06898786872625351,0.0703710988163948,0.07920435816049576,0.06648098677396774,0.06508295983076096
2018-08-22,0.07710319012403488,0.08831340074539185,0.08671659231185913,0.06922118365764618,0.07312560081481934
2018-09-01,0.09209077060222626,0.10545673221349716,0.1128760576248169,0.09161384403705597,0.09045504778623581
2018-09-11,0.08282217383384705,0.07871218770742416,0.08609101176261902,0.08479182422161102,0.08663063496351242
2018-09-21,0.09673241525888443,0.11721373349428177,0.11263833940029144,0.08043855428695679,0.08499275892972946
2018-10-01,0.0729559138417244,0.08738482743501663,0.08317961543798447,0.06663461029529572,0.06358636915683746
2018-10-11,0.0809447169303894,0.0848529189825058,0.09139931201934814,0.07547066360712051,0.0692141130566597
2018-10-21,0.10501062870025635,0.10032424330711365,0.10441059619188309,0.11483354866504669,0.11323975026607513
2018-10-31,0.08102275431156158,0.08992623537778854,0.10394975543022156,0.08246094733476639,0.07048230618238449
2018-11-10,0.09939269721508026,0.10776951909065247,0.11618819087743759,0.09299743175506592,0.09164965152740479
2018-11-20,0.07451723515987396,0.085929274559021,0.08332183212041855,0.06901350617408752,0.07959163188934326
2018-11-30,0.06847095489501953,0.08297359943389893,0.08667756617069244,0.06497788429260254,0.06019507348537445
